<svg xmlns="http://www.w3.org/2000/svg" xmlns:xlink="http://www.w3.org/1999/xlink" width="15" height="15" version="1.1"><rect id="backgroundrect" width="100%" height="100%" x="0" y="0" fill="none" stroke="none"/>

<g class="currentLayer" style=""><title>Layer 1</title><g id="surface1" class="selected" fill-opacity="1" fill="#8343ff">
<path style="stroke: none; fill-rule: nonzero; fill-opacity: 1;" d="M 0.21875 3.097656 C 0.261719 3.195312 7.460938 11.945312 7.507812 11.945312 C 7.554688 11.945312 14.753906 3.195312 14.792969 3.097656 C 14.820312 3.015625 13.773438 3.003906 7.507812 3.003906 C 1.242188 3.003906 0.195312 3.015625 0.21875 3.097656 Z M 0.21875 3.097656 " id="svg_1" fill="#8343ff"/>
</g></g></svg>