<?xml version="1.0" encoding="UTF-8"?>
<svg xmlns="http://www.w3.org/2000/svg" xmlns:xlink="http://www.w3.org/1999/xlink" width="25pt" height="25pt" viewBox="0 0 25 25" version="1.1">
<g id="surface1">
<path style=" stroke:none;fill-rule:nonzero;fill:rgb(51.372549%,26.27451%,100%);fill-opacity:1;" d="M 11.640625 0.742188 C 9.207031 0.917969 6.984375 1.789062 5.125 3.292969 C 2.773438 5.199219 1.269531 7.914062 0.914062 10.910156 C 0.546875 13.933594 1.386719 16.953125 3.265625 19.375 C 3.417969 19.574219 3.515625 19.6875 3.824219 20.039062 C 4.183594 20.449219 4.917969 21.121094 5.4375 21.511719 C 8.164062 23.566406 11.632812 24.308594 14.964844 23.554688 C 17.96875 22.871094 20.613281 20.972656 22.242188 18.324219 C 23.230469 16.71875 23.777344 15 23.917969 13.089844 C 23.972656 12.320312 23.957031 11.664062 23.867188 10.910156 C 23.488281 7.738281 21.808594 4.859375 19.234375 2.964844 C 17.558594 1.738281 15.597656 0.984375 13.535156 0.777344 C 13.085938 0.734375 12.046875 0.714844 11.640625 0.742188 Z M 13.339844 2.25 C 15.425781 2.441406 17.382812 3.273438 18.992188 4.65625 C 19.261719 4.890625 19.832031 5.46875 20.066406 5.742188 C 21.246094 7.125 22.035156 8.828125 22.335938 10.644531 C 22.496094 11.613281 22.503906 12.890625 22.347656 13.84375 C 22.21875 14.683594 22 15.441406 21.675781 16.207031 C 21.421875 16.820312 21.179688 17.265625 20.785156 17.859375 C 19.597656 19.644531 17.910156 20.988281 15.90625 21.734375 C 14.78125 22.152344 13.644531 22.351562 12.378906 22.351562 C 10.984375 22.351562 9.765625 22.109375 8.515625 21.589844 C 7.652344 21.230469 6.886719 20.78125 6.125 20.183594 C 5.683594 19.839844 4.882812 19.042969 4.527344 18.59375 C 3.410156 17.195312 2.707031 15.597656 2.429688 13.84375 C 2.273438 12.886719 2.28125 11.613281 2.441406 10.644531 C 2.691406 9.125 3.265625 7.722656 4.144531 6.476562 C 5.398438 4.703125 7.210938 3.359375 9.257812 2.699219 C 10.15625 2.40625 10.839844 2.285156 12.039062 2.199219 C 12.246094 2.1875 12.9375 2.214844 13.339844 2.25 Z M 13.339844 2.25 "/>
<path style=" stroke:none;fill-rule:nonzero;fill:rgb(51.372549%,26.27451%,100%);fill-opacity:1;" d="M 14.191406 9.792969 L 14.183594 10.875 L 4.621094 10.882812 L 4.578125 10.933594 C 4.535156 10.984375 4.535156 11.085938 4.535156 12.28125 C 4.535156 13.480469 4.535156 13.582031 4.578125 13.628906 L 4.621094 13.679688 L 9.402344 13.6875 L 14.183594 13.691406 L 14.191406 14.765625 C 14.191406 15.527344 14.203125 15.847656 14.222656 15.847656 C 14.25 15.847656 14.328125 15.804688 15.617188 15.039062 C 16.113281 14.746094 16.679688 14.414062 16.871094 14.300781 C 17.0625 14.1875 17.585938 13.878906 18.027344 13.621094 C 18.472656 13.355469 19.136719 12.964844 19.507812 12.746094 C 19.878906 12.527344 20.199219 12.335938 20.21875 12.316406 C 20.246094 12.289062 20.246094 12.277344 20.21875 12.25 C 20.1875 12.21875 18.667969 11.316406 16.679688 10.152344 C 16.378906 9.972656 16.0625 9.785156 15.972656 9.730469 C 15.882812 9.679688 15.804688 9.628906 15.800781 9.628906 C 15.796875 9.628906 15.609375 9.523438 15.386719 9.390625 C 14.695312 8.976562 14.25 8.714844 14.222656 8.714844 C 14.203125 8.714844 14.191406 9.042969 14.191406 9.792969 Z M 14.191406 9.792969 "/>
</g>
</svg>
