<?xml version="1.0" encoding="UTF-8"?>
<svg xmlns="http://www.w3.org/2000/svg" xmlns:xlink="http://www.w3.org/1999/xlink" width="100pt" height="100pt" viewBox="0 0 100 100" version="1.1">
<g id="surface1">
<path style=" stroke:none;fill-rule:nonzero;fill:rgb(100%,100%,100%);fill-opacity:1;" d="M 47.5625 0.0703125 C 37.351562 0.832031 28.15625 6.164062 22.363281 14.6875 C 17.574219 21.730469 15.699219 30.417969 17.132812 38.96875 C 18.230469 45.554688 21.398438 51.75 26.15625 56.617188 C 28.679688 59.199219 31.4375 61.25 34.625 62.925781 C 41.355469 66.457031 49.367188 67.550781 56.875 65.96875 C 62.363281 64.804688 67.355469 62.34375 71.71875 58.636719 C 72.636719 57.855469 74.75 55.71875 75.523438 54.78125 C 77.957031 51.851562 79.761719 48.804688 81.085938 45.386719 C 82.601562 41.5 83.320312 37.617188 83.320312 33.34375 C 83.320312 30.757812 83.105469 28.695312 82.585938 26.269531 C 80.4375 16.1875 73.511719 7.507812 64.136719 3.132812 C 60.398438 1.386719 56.46875 0.367188 52.28125 0.0625 C 51.261719 -0.0117188 48.601562 -0.0078125 47.5625 0.0703125 Z M 72.1875 44.488281 C 72.1875 44.585938 71.304688 46.144531 70.84375 46.84375 C 68.882812 49.863281 66.476562 52.300781 63.5625 54.21875 C 60.21875 56.425781 56.804688 57.667969 52.75 58.167969 C 51.476562 58.320312 48.523438 58.320312 47.25 58.167969 C 41.886719 57.507812 37.34375 55.425781 33.304688 51.773438 C 31.8125 50.425781 30.414062 48.769531 29.210938 46.929688 C 28.710938 46.175781 27.8125 44.59375 27.8125 44.488281 C 27.8125 44.457031 37.800781 44.4375 50 44.4375 C 62.207031 44.4375 72.1875 44.457031 72.1875 44.488281 Z M 72.1875 44.488281 "/>
<path style=" stroke:none;fill-rule:nonzero;fill:rgb(100%,100%,100%);fill-opacity:1;" d="M 29.625 72.6875 C 27.039062 73.449219 25.019531 74.230469 22.78125 75.34375 C 20.269531 76.585938 18.25 77.90625 16.09375 79.695312 C 15.230469 80.414062 13.085938 82.5625 12.335938 83.46875 C 8.832031 87.695312 6.351562 92.523438 4.523438 98.679688 C 4.335938 99.3125 4.1875 99.867188 4.1875 99.914062 C 4.1875 99.988281 11.386719 100 50 100 C 84.632812 100 95.8125 99.980469 95.8125 99.925781 C 95.8125 99.773438 95.289062 98.03125 94.820312 96.625 C 93.085938 91.460938 90.789062 87.230469 87.664062 83.46875 C 86.851562 82.492188 84.804688 80.449219 83.8125 79.625 C 81.699219 77.867188 79.730469 76.585938 77.21875 75.34375 C 74.960938 74.226562 72.898438 73.425781 70.351562 72.6875 L 69.300781 72.382812 L 68.425781 72.820312 C 62.613281 75.730469 56.46875 77.1875 50 77.1875 C 43.519531 77.1875 37.394531 75.730469 31.570312 72.8125 C 31.085938 72.574219 30.679688 72.375 30.675781 72.382812 C 30.664062 72.382812 30.195312 72.519531 29.625 72.6875 Z M 29.625 72.6875 "/>
</g>
</svg>
